…
```r
wetlandsspprichReg<-
  wetlandsMA%>%
  group_by(ManagedArea,yearmonth,Year,Month)%>%
  summarise(length(unique(gensp)))

#"n" is the number of unique spp per Region and Year, aka the species Richness
##rename that column
colnames(wetlandsspprichReg) [5]<-"speciesrichness"
#what do we have?
wetlandsspprichReg
```

```
## # A tibble: 45 × 5
## # Groups:   ManagedArea, yearmonth, Year [45]
##    ManagedArea       yearmonth  Year Month speciesrichness
##    <chr>             <chr>     <int> <int>           <int>
##  1 Guana River Marsh 2012.11    2012    11               2
##  2 Guana River Marsh 2013.08    2013     8               2
##  3 Guana River Marsh 2014.01    2014     1               2
##  4 Guana River Marsh 2014.02    2014     2               3
##  5 Guana River Marsh 2014.03    2014     3               2
##  6 Guana River Marsh 2014.04    2014     4               2
##  7 Guana River Marsh 2014.05    2014     5               2
##  8 Guana River Marsh 2014.06    2014     6               2
##  9 Guana River Marsh 2014.07    2014     7               2
## 10 Guana River Marsh 2014.08    2014     8               2
## # … with 35 more rows
```
…
